Part1/simulation/qsim/Part1.msim.vcd
$comment
	File created using the following command:
		vcd file Part1.msim.vcd -direction
$end
$date
	Tue Nov 27 22:12:05 2018
$end
$version
	ModelSim Version 10.5b
$end
$timescale
	1ps
$end

$scope module Part1_vlg_vec_tst $end
$var reg 1 ! clock $end
$var reg 1 " enable $end
$var wire 1 # out [7] $end
$var wire 1 $ out [6] $end
$var wire 1 % out [5] $end
$var wire 1 & out [4] $end
$var wire 1 ' out [3] $end
$var wire 1 ( out [2] $end
$var wire 1 ) out [1] $end
$var wire 1 * out [0] $end

$scope module i1 $end
$var wire 1 + gnd $end
$var wire 1 , vcc $end
$var wire 1 - unknown $end
$var tri1 1 . devclrn $end
$var tri1 1 / devpor $end
$var tri1 1 0 devoe $end
$var wire 1 1 out[0]~output_o $end
$var wire 1 2 out[1]~output_o $end
$var wire 1 3 out[2]~output_o $end
$var wire 1 4 out[3]~output_o $end
$var wire 1 5 out[4]~output_o $end
$var wire 1 6 out[5]~output_o $end
$var wire 1 7 out[6]~output_o $end
$var wire 1 8 out[7]~output_o $end
$var wire 1 9 clock~input_o $end
$var wire 1 : clock~inputclkctrl_outclk $end
$var wire 1 ; enable~input_o $end
$var wire 1 < ff0|Q~0_combout $end
$var wire 1 = ff0|Q~q $end
$var wire 1 > ff1|Q~0_combout $end
$var wire 1 ? ff1|Q~q $end
$var wire 1 @ ff2|Q~0_combout $end
$var wire 1 A ff2|Q~q $end
$var wire 1 B in_3~combout $end
$var wire 1 C ff3|Q~0_combout $end
$var wire 1 D ff3|Q~q $end
$var wire 1 E ff4|Q~0_combout $end
$var wire 1 F ff4|Q~q $end
$var wire 1 G ff5|Q~0_combout $end
$var wire 1 H ff5|Q~q $end
$var wire 1 I in_6~combout $end
$var wire 1 J ff6|Q~0_combout $end
$var wire 1 K ff6|Q~q $end
$var wire 1 L ff7|Q~0_combout $end
$var wire 1 M ff7|Q~1_combout $end
$var wire 1 N ff7|Q~q $end
$upscope $end
$upscope $end
$enddefinitions $end
#0
$dumpvars
0!
1"
0*
0)
0(
0'
0&
0%
0$
0#
0+
1,
x-
1.
1/
10
01
02
03
04
05
06
07
08
09
0:
1;
1<
0=
0>
0?
0@
0A
0B
0C
0D
0E
0F
0G
0H
0I
0J
0K
1L
0M
0N
$end
#2500
1!
19
1:
1=
11
1*
1>
0<
#5000
0!
09
0:
#7500
1!
19
1:
1?
0=
01
12
1)
0*
1<
#10000
0!
09
0:
#12500
1!
19
1:
1=
11
1*
1@
0>
0<
#15000
0!
09
0:
#17500
1!
19
1:
1A
0?
0=
01
02
13
1(
0)
0*
1<
#20000
0!
09
0:
#22500
1!
19
1:
1=
11
1*
1>
0<
#25000
0!
09
0:
#27500
1!
19
1:
1?
0=
01
12
1)
0*
1<
